<html>
	<head>
		<title><?=$title ?></title>
	</head>

	<body>

		<h1><?=$heading?></h1>
		<hr />
		<?php echo validation_errors(); ?>
		<?php echo form_open('verifylogin'); ?>
			<label for="username">Username:</label>
			<input type="text" size="20" id="username" name="username"/><br/>
			<label for="password">Password:</label>
			<input type="password" size="20" id="passowrd" name="password"/><br/>
			<input type="submit" value="Login"/>
		</form>
		<?=anchor('blog/register', 'Register')?>
	</body>
</html>
